{
  "users": [
    {
      "id": 1,
      "email": "wfm@mail.ru",
      "password": "12345678",
      "name": "Администратор"
    },
    {
      "email": "test@test.com",
      "password": "password",
      "name": "testUser",
      "id": 2
    },
    {
      "email": "igorrybalko2009@yandex.ru",
      "password": "1234567",
      "name": "igor",
      "id": 3
    },
    {
      "email": "test1@com.ua",
      "password": "12345678",
      "name": "hello",
      "id": 4
    }
  ],
  "bill": {
    "value": 10000,
    "currency": "RUB"
  },
  "categories": [
    {
      "name": "Дом2",
      "capacity": 1504,
      "id": 1
    },
    {
      "name": "Еда",
      "capacity": 1000,
      "id": 2
    },
    {
      "id": 3,
      "name": "Машина",
      "capacity": 700
    },
    {
      "name": "new 25",
      "capacity": 103,
      "id": 4
    },
    {
      "name": "new2",
      "capacity": 3,
      "id": 5
    },
    {
      "name": "что то еще",
      "capacity": 10,
      "id": 6
    }
  ],
  "events": [
    {
      "id": 1,
      "type": "income",
      "amount": 125,
      "category": 2,
      "date": "12.06.2017 19:49:02",
      "description": "Подарили еду в гостях"
    },
    {
      "id": 2,
      "type": "outcome",
      "amount": 130,
      "category": 1,
      "date": "13.06.2017 19:49:02",
      "description": "Купил посудомоечную машину"
    },
    {
      "type": "income",
      "amount": 148,
      "category": 2,
      "date": "17.06.2017 14:00:48",
      "id": 3,
      "description": "Поход в окей с баллами. Бесплатная еда"
    },
    {
      "type": "outcome",
      "amount": 247,
      "category": 2,
      "date": "17.06.2017 14:00:58",
      "id": 4,
      "description": "Закупка на неделю"
    },
    {
      "type": "outcome",
      "amount": 400,
      "category": 3,
      "date": "10.06.2017 14:01:58",
      "id": 5,
      "description": "Заправка + проход ТО"
    },
    {
      "type": "outcome",
      "amount": 1000,
      "category": 2,
      "date": "25.06.2018 16:32:26",
      "description": "test",
      "id": 6
    },
    {
      "type": "outcome",
      "amount": 10000,
      "category": 1,
      "date": "25.06.2018 16:54:12",
      "description": "test2",
      "id": 7
    },
    {
      "type": "outcome",
      "amount": 10000,
      "category": 1,
      "date": "25.06.2018 16:58:57",
      "description": "test3",
      "id": 8
    },
    {
      "type": "income",
      "amount": 10000,
      "category": 1,
      "date": "25.06.2018 17:06:14",
      "description": "test3",
      "id": 9
    }
  ],
  "rate": {
    "success": true,
    "timestamp": 1523114948,
    "base": "EUR",
    "date": "2018-04-07",
    "rates": {
      "USD": 1.228797,
      "GBP": 0.87209,
      "CHF": 1.178011,
      "JPY": 131.348561,
      "CNY": 7.746833,
      "RUB": 71.442253,
      "PLN": 4.200524
    }
  }
}